^C:\USERS\ADMINISTRADOR\DESKTOP\GRAFICOS-3\ENGINEFERNANDEZBERRO\TEST\GAME.CPP
/c /ZI /nologo /W3 /WX- /sdl /Od /D _MBCS /Gm /EHsc /RTC1 /MDd /GS /fp:precise /Zc:wchar_t /Zc:forScope /Zc:inline /Fo"X64\DEBUG\\" /Fd"X64\DEBUG\VC140.PDB" /Gd /TP C:\USERS\ADMINISTRADOR\DESKTOP\GRAFICOS-3\ENGINEFERNANDEZBERRO\TEST\GAME.CPP
^C:\USERS\ADMINISTRADOR\DESKTOP\GRAFICOS-3\ENGINEFERNANDEZBERRO\TEST\MAIN.CPP
/c /ZI /nologo /W3 /WX- /sdl /Od /D _MBCS /Gm /EHsc /RTC1 /MDd /GS /fp:precise /Zc:wchar_t /Zc:forScope /Zc:inline /Fo"X64\DEBUG\\" /Fd"X64\DEBUG\VC140.PDB" /Gd /TP C:\USERS\ADMINISTRADOR\DESKTOP\GRAFICOS-3\ENGINEFERNANDEZBERRO\TEST\MAIN.CPP
