^C:\USERS\ADMINISTRADOR\DESKTOP\GRAFICOS-3\ENGINEFERNANDEZBERRO\TEST\GAME.CPP|C:\USERS\ADMINISTRADOR\DESKTOP\GRAFICOS-3\ENGINEFERNANDEZBERRO\TEST\MAIN.CPP
C:\USERS\ADMINISTRADOR\DESKTOP\GRAFICOS-3\ENGINEFERNANDEZBERRO\TEST\X64\DEBUG\VC140.PDB
C:\USERS\ADMINISTRADOR\DESKTOP\GRAFICOS-3\ENGINEFERNANDEZBERRO\TEST\X64\DEBUG\VC140.IDB
^C:\USERS\ADMINISTRADOR\DESKTOP\GRAFICOS-3\ENGINEFERNANDEZBERRO\TEST\GAME.CPP
C:\USERS\ADMINISTRADOR\DESKTOP\GRAFICOS-3\ENGINEFERNANDEZBERRO\TEST\X64\DEBUG\VC140.PDB
^C:\USERS\ADMINISTRADOR\DESKTOP\GRAFICOS-3\ENGINEFERNANDEZBERRO\TEST\MAIN.CPP
C:\USERS\ADMINISTRADOR\DESKTOP\GRAFICOS-3\ENGINEFERNANDEZBERRO\TEST\X64\DEBUG\VC140.PDB
