^C:\USERS\ADMINISTRADOR\DESKTOP\GRAFICOS-3\ENGINEFERNANDEZBERRO\DLL\ANIMATION.CPP
/c /ZI /nologo /W3 /WX- /sdl /Od /D _MBCS /Gm /EHsc /RTC1 /MDd /GS /fp:precise /Zc:wchar_t /Zc:forScope /Zc:inline /Fo"X64\DEBUG\\" /Fd"X64\DEBUG\VC140.PDB" /Gd /TP C:\USERS\ADMINISTRADOR\DESKTOP\GRAFICOS-3\ENGINEFERNANDEZBERRO\DLL\ANIMATION.CPP
^C:\USERS\ADMINISTRADOR\DESKTOP\GRAFICOS-3\ENGINEFERNANDEZBERRO\DLL\BASEJUEGO.CPP
/c /ZI /nologo /W3 /WX- /sdl /Od /D _MBCS /Gm /EHsc /RTC1 /MDd /GS /fp:precise /Zc:wchar_t /Zc:forScope /Zc:inline /Fo"X64\DEBUG\\" /Fd"X64\DEBUG\VC140.PDB" /Gd /TP C:\USERS\ADMINISTRADOR\DESKTOP\GRAFICOS-3\ENGINEFERNANDEZBERRO\DLL\BASEJUEGO.CPP
^C:\USERS\ADMINISTRADOR\DESKTOP\GRAFICOS-3\ENGINEFERNANDEZBERRO\DLL\BOXCOLLIDER.CPP
/c /ZI /nologo /W3 /WX- /sdl /Od /D _MBCS /Gm /EHsc /RTC1 /MDd /GS /fp:precise /Zc:wchar_t /Zc:forScope /Zc:inline /Fo"X64\DEBUG\\" /Fd"X64\DEBUG\VC140.PDB" /Gd /TP C:\USERS\ADMINISTRADOR\DESKTOP\GRAFICOS-3\ENGINEFERNANDEZBERRO\DLL\BOXCOLLIDER.CPP
^C:\USERS\ADMINISTRADOR\DESKTOP\GRAFICOS-3\ENGINEFERNANDEZBERRO\DLL\CAMERA.CPP
/c /ZI /nologo /W3 /WX- /sdl /Od /D _MBCS /Gm /EHsc /RTC1 /MDd /GS /fp:precise /Zc:wchar_t /Zc:forScope /Zc:inline /Fo"X64\DEBUG\\" /Fd"X64\DEBUG\VC140.PDB" /Gd /TP C:\USERS\ADMINISTRADOR\DESKTOP\GRAFICOS-3\ENGINEFERNANDEZBERRO\DLL\CAMERA.CPP
^C:\USERS\ADMINISTRADOR\DESKTOP\GRAFICOS-3\ENGINEFERNANDEZBERRO\DLL\CIRCULO.CPP
/c /ZI /nologo /W3 /WX- /sdl /Od /D _MBCS /Gm /EHsc /RTC1 /MDd /GS /fp:precise /Zc:wchar_t /Zc:forScope /Zc:inline /Fo"X64\DEBUG\\" /Fd"X64\DEBUG\VC140.PDB" /Gd /TP C:\USERS\ADMINISTRADOR\DESKTOP\GRAFICOS-3\ENGINEFERNANDEZBERRO\DLL\CIRCULO.CPP
^C:\USERS\ADMINISTRADOR\DESKTOP\GRAFICOS-3\ENGINEFERNANDEZBERRO\DLL\COLLISIONMANAGER.CPP
/c /ZI /nologo /W3 /WX- /sdl /Od /D _MBCS /Gm /EHsc /RTC1 /MDd /GS /fp:precise /Zc:wchar_t /Zc:forScope /Zc:inline /Fo"X64\DEBUG\\" /Fd"X64\DEBUG\VC140.PDB" /Gd /TP C:\USERS\ADMINISTRADOR\DESKTOP\GRAFICOS-3\ENGINEFERNANDEZBERRO\DLL\COLLISIONMANAGER.CPP
^C:\USERS\ADMINISTRADOR\DESKTOP\GRAFICOS-3\ENGINEFERNANDEZBERRO\DLL\ENTIDAD.CPP
/c /ZI /nologo /W3 /WX- /sdl /Od /D _MBCS /Gm /EHsc /RTC1 /MDd /GS /fp:precise /Zc:wchar_t /Zc:forScope /Zc:inline /Fo"X64\DEBUG\\" /Fd"X64\DEBUG\VC140.PDB" /Gd /TP C:\USERS\ADMINISTRADOR\DESKTOP\GRAFICOS-3\ENGINEFERNANDEZBERRO\DLL\ENTIDAD.CPP
^C:\USERS\ADMINISTRADOR\DESKTOP\GRAFICOS-3\ENGINEFERNANDEZBERRO\DLL\FORMACOLOREADA.CPP
/c /ZI /nologo /W3 /WX- /sdl /Od /D _MBCS /Gm /EHsc /RTC1 /MDd /GS /fp:precise /Zc:wchar_t /Zc:forScope /Zc:inline /Fo"X64\DEBUG\\" /Fd"X64\DEBUG\VC140.PDB" /Gd /TP C:\USERS\ADMINISTRADOR\DESKTOP\GRAFICOS-3\ENGINEFERNANDEZBERRO\DLL\FORMACOLOREADA.CPP
^C:\USERS\ADMINISTRADOR\DESKTOP\GRAFICOS-3\ENGINEFERNANDEZBERRO\DLL\LOADERTEXTURAS.CPP
/c /ZI /nologo /W3 /WX- /sdl /Od /D _MBCS /Gm /EHsc /RTC1 /MDd /GS /fp:precise /Zc:wchar_t /Zc:forScope /Zc:inline /Fo"X64\DEBUG\\" /Fd"X64\DEBUG\VC140.PDB" /Gd /TP C:\USERS\ADMINISTRADOR\DESKTOP\GRAFICOS-3\ENGINEFERNANDEZBERRO\DLL\LOADERTEXTURAS.CPP
^C:\USERS\ADMINISTRADOR\DESKTOP\GRAFICOS-3\ENGINEFERNANDEZBERRO\DLL\MATERIAL.CPP
/c /ZI /nologo /W3 /WX- /sdl /Od /D _MBCS /Gm /EHsc /RTC1 /MDd /GS /fp:precise /Zc:wchar_t /Zc:forScope /Zc:inline /Fo"X64\DEBUG\\" /Fd"X64\DEBUG\VC140.PDB" /Gd /TP C:\USERS\ADMINISTRADOR\DESKTOP\GRAFICOS-3\ENGINEFERNANDEZBERRO\DLL\MATERIAL.CPP
^C:\USERS\ADMINISTRADOR\DESKTOP\GRAFICOS-3\ENGINEFERNANDEZBERRO\DLL\RECTANGULO.CPP
/c /ZI /nologo /W3 /WX- /sdl /Od /D _MBCS /Gm /EHsc /RTC1 /MDd /GS /fp:precise /Zc:wchar_t /Zc:forScope /Zc:inline /Fo"X64\DEBUG\\" /Fd"X64\DEBUG\VC140.PDB" /Gd /TP C:\USERS\ADMINISTRADOR\DESKTOP\GRAFICOS-3\ENGINEFERNANDEZBERRO\DLL\RECTANGULO.CPP
^C:\USERS\ADMINISTRADOR\DESKTOP\GRAFICOS-3\ENGINEFERNANDEZBERRO\DLL\RENDERER.CPP
/c /ZI /nologo /W3 /WX- /sdl /Od /D _MBCS /Gm /EHsc /RTC1 /MDd /GS /fp:precise /Zc:wchar_t /Zc:forScope /Zc:inline /Fo"X64\DEBUG\\" /Fd"X64\DEBUG\VC140.PDB" /Gd /TP C:\USERS\ADMINISTRADOR\DESKTOP\GRAFICOS-3\ENGINEFERNANDEZBERRO\DLL\RENDERER.CPP
^C:\USERS\ADMINISTRADOR\DESKTOP\GRAFICOS-3\ENGINEFERNANDEZBERRO\DLL\SPRITE.CPP
/c /ZI /nologo /W3 /WX- /sdl /Od /D _MBCS /Gm /EHsc /RTC1 /MDd /GS /fp:precise /Zc:wchar_t /Zc:forScope /Zc:inline /Fo"X64\DEBUG\\" /Fd"X64\DEBUG\VC140.PDB" /Gd /TP C:\USERS\ADMINISTRADOR\DESKTOP\GRAFICOS-3\ENGINEFERNANDEZBERRO\DLL\SPRITE.CPP
^C:\USERS\ADMINISTRADOR\DESKTOP\GRAFICOS-3\ENGINEFERNANDEZBERRO\DLL\SPRITESHEET.CPP
/c /ZI /nologo /W3 /WX- /sdl /Od /D _MBCS /Gm /EHsc /RTC1 /MDd /GS /fp:precise /Zc:wchar_t /Zc:forScope /Zc:inline /Fo"X64\DEBUG\\" /Fd"X64\DEBUG\VC140.PDB" /Gd /TP C:\USERS\ADMINISTRADOR\DESKTOP\GRAFICOS-3\ENGINEFERNANDEZBERRO\DLL\SPRITESHEET.CPP
^C:\USERS\ADMINISTRADOR\DESKTOP\GRAFICOS-3\ENGINEFERNANDEZBERRO\DLL\TRIANGULO.CPP
/c /ZI /nologo /W3 /WX- /sdl /Od /D _MBCS /Gm /EHsc /RTC1 /MDd /GS /fp:precise /Zc:wchar_t /Zc:forScope /Zc:inline /Fo"X64\DEBUG\\" /Fd"X64\DEBUG\VC140.PDB" /Gd /TP C:\USERS\ADMINISTRADOR\DESKTOP\GRAFICOS-3\ENGINEFERNANDEZBERRO\DLL\TRIANGULO.CPP
^C:\USERS\ADMINISTRADOR\DESKTOP\GRAFICOS-3\ENGINEFERNANDEZBERRO\DLL\VENTANA.CPP
/c /ZI /nologo /W3 /WX- /sdl /Od /D _MBCS /Gm /EHsc /RTC1 /MDd /GS /fp:precise /Zc:wchar_t /Zc:forScope /Zc:inline /Fo"X64\DEBUG\\" /Fd"X64\DEBUG\VC140.PDB" /Gd /TP C:\USERS\ADMINISTRADOR\DESKTOP\GRAFICOS-3\ENGINEFERNANDEZBERRO\DLL\VENTANA.CPP
